…
##### **Chapter 5**

###### **5.1**

-   It is rare to get data exactly as you need it.
    -   we will learn how to reorder the data and create new variables or summaries of the data
    -   we will use stats::filter() & stats::lag()

``` r
nycflights13::flights
```

    ## # A tibble: 336,776 x 19
    ##     year month   day dep_time sched_dep_time dep_delay arr_time
    ##    <int> <int> <int>    <int>          <int>     <dbl>    <int>
    ##  1  2013     1     1      517            515         2      830
    ##  2  2013     1     1      533            529         4      850
    ##  3  2013     1     1      542            540         2      923
    ##  4  2013     1     1      544            545        -1     1004
    ##  5  2013     1     1      554            600        -6      812
    ##  6  2013     1     1      554            558        -4      740
    ##  7  2013     1     1      555            600        -5      913
    ##  8  2013     1     1      557            600        -3      709
    ##  9  2013     1     1      557            600        -3      838
    ## 10  2013     1     1      558            600        -2      753
    ## # ... with 336,766 more rows, and 12 more variables: sched_arr_time <int>,
    ## #   arr_delay <dbl>, carrier <chr>, flight <int>, tailnum <chr>,
    ## #   origin <chr>, dest <chr>, air_time <dbl>, distance <dbl>, hour <dbl>,
    ## #   minute <dbl>, time_hour <dttm>
…
``` r
jan1 <- filter(flights, month == 1, day == 1)
```

    + we get all the data from january 1st
    + we assigned this filtered data frame to jan1

-   Exercises

``` r
filter(flights, arr_delay >= 2)
```

    ## # A tibble: 127,929 x 19
    ##     year month   day dep_time sched_dep_time dep_delay arr_time
    ##    <int> <int> <int>    <int>          <int>     <dbl>    <int>
    ##  1  2013     1     1      517            515         2      830
    ##  2  2013     1     1      533            529         4      850
    ##  3  2013     1     1      542            540         2      923
    ##  4  2013     1     1      554            558        -4      740
    ##  5  2013     1     1      555            600        -5      913
    ##  6  2013     1     1      558            600        -2      753
    ##  7  2013     1     1      558            600        -2      924
    ##  8  2013     1     1      559            600        -1      941
    ##  9  2013     1     1      600            600         0      837
    ## 10  2013     1     1      602            605        -3      821
    ## # ... with 127,919 more rows, and 12 more variables: sched_arr_time <int>,
    ## #   arr_delay <dbl>, carrier <chr>, flight <int>, tailnum <chr>,
    ## #   origin <chr>, dest <chr>, air_time <dbl>, distance <dbl>, hour <dbl>,
    ## #   minute <dbl>, time_hour <dttm>

``` r
filter(flights, dest == "IAH" | dest == "HOU")
```

    ## # A tibble: 9,313 x 19
    ##     year month   day dep_time sched_dep_time dep_delay arr_time
    ##    <int> <int> <int>    <int>          <int>     <dbl>    <int>
    ##  1  2013     1     1      517            515         2      830
    ##  2  2013     1     1      533            529         4      850
    ##  3  2013     1     1      623            627        -4      933
    ##  4  2013     1     1      728            732        -4     1041
    ##  5  2013     1     1      739            739         0     1104
    ##  6  2013     1     1      908            908         0     1228
    ##  7  2013     1     1     1028           1026         2     1350
    ##  8  2013     1     1     1044           1045        -1     1352
    ##  9  2013     1     1     1114            900       134     1447
    ## 10  2013     1     1     1205           1200         5     1503
    ## # ... with 9,303 more rows, and 12 more variables: sched_arr_time <int>,
    ## #   arr_delay <dbl>, carrier <chr>, flight <int>, tailnum <chr>,
    ## #   origin <chr>, dest <chr>, air_time <dbl>, distance <dbl>, hour <dbl>,
    ## #   minute <dbl>, time_hour <dttm>

``` r
filter(flights, carrier == "UA" | carrier == "AA" | carrier == "DL")
```

    ## # A tibble: 139,504 x 19
    ##     year month   day dep_time sched_dep_time dep_delay arr_time
    ##    <int> <int> <int>    <int>          <int>     <dbl>    <int>
    ##  1  2013     1     1      517            515         2      830
    ##  2  2013     1     1      533            529         4      850
    ##  3  2013     1     1      542            540         2      923
    ##  4  2013     1     1      554            600        -6      812
    ##  5  2013     1     1      554            558        -4      740
    ##  6  2013     1     1      558            600        -2      753
    ##  7  2013     1     1      558            600        -2      924
    ##  8  2013     1     1      558            600        -2      923
    ##  9  2013     1     1      559            600        -1      941
    ## 10  2013     1     1      559            600        -1      854
    ## # ... with 139,494 more rows, and 12 more variables: sched_arr_time <int>,
    ## #   arr_delay <dbl>, carrier <chr>, flight <int>, tailnum <chr>,
    ## #   origin <chr>, dest <chr>, air_time <dbl>, distance <dbl>, hour <dbl>,
    ## #   minute <dbl>, time_hour <dttm>

``` r
filter(flights, month == 7 | month == 8 | month == 9)
```

    ## # A tibble: 86,326 x 19
    ##     year month   day dep_time sched_dep_time dep_delay arr_time
    ##    <int> <int> <int>    <int>          <int>     <dbl>    <int>
    ##  1  2013     7     1        1           2029       212      236
    ##  2  2013     7     1        2           2359         3      344
    ##  3  2013     7     1       29           2245       104      151
    ##  4  2013     7     1       43           2130       193      322
    ##  5  2013     7     1       44           2150       174      300
    ##  6  2013     7     1       46           2051       235      304
    ##  7  2013     7     1       48           2001       287      308
    ##  8  2013     7     1       58           2155       183      335
    ##  9  2013     7     1      100           2146       194      327
    ## 10  2013     7     1      100           2245       135      337
    ## # ... with 86,316 more rows, and 12 more variables: sched_arr_time <int>,
    ## #   arr_delay <dbl>, carrier <chr>, flight <int>, tailnum <chr>,
    ## #   origin <chr>, dest <chr>, air_time <dbl>, distance <dbl>, hour <dbl>,
    ## #   minute <dbl>, time_hour <dttm>

###### **5.3**

-   arrange is similar to filter but it changes order of rows instead of selecting them

-   Exercises

``` r
arrange(flights, is.na(month))
```

    ## # A tibble: 336,776 x 19
    ##     year month   day dep_time sched_dep_time dep_delay arr_time
    ##    <int> <int> <int>    <int>          <int>     <dbl>    <int>
    ##  1  2013     1     1      517            515         2      830
    ##  2  2013     1     1      533            529         4      850
    ##  3  2013     1     1      542            540         2      923
    ##  4  2013     1     1      544            545        -1     1004
    ##  5  2013     1     1      554            600        -6      812
    ##  6  2013     1     1      554            558        -4      740
    ##  7  2013     1     1      555            600        -5      913
    ##  8  2013     1     1      557            600        -3      709
    ##  9  2013     1     1      557            600        -3      838
    ## 10  2013     1     1      558            600        -2      753
    ## # ... with 336,766 more rows, and 12 more variables: sched_arr_time <int>,
    ## #   arr_delay <dbl>, carrier <chr>, flight <int>, tailnum <chr>,
    ## #   origin <chr>, dest <chr>, air_time <dbl>, distance <dbl>, hour <dbl>,
    ## #   minute <dbl>, time_hour <dttm>

``` r
arrange(flights, dep_delay)
```

    ## # A tibble: 336,776 x 19
    ##     year month   day dep_time sched_dep_time dep_delay arr_time
    ##    <int> <int> <int>    <int>          <int>     <dbl>    <int>
    ##  1  2013    12     7     2040           2123       -43       40
    ##  2  2013     2     3     2022           2055       -33     2240
    ##  3  2013    11    10     1408           1440       -32     1549
    ##  4  2013     1    11     1900           1930       -30     2233
    ##  5  2013     1    29     1703           1730       -27     1947
    ##  6  2013     8     9      729            755       -26     1002
    ##  7  2013    10    23     1907           1932       -25     2143
    ##  8  2013     3    30     2030           2055       -25     2213
    ##  9  2013     3     2     1431           1455       -24     1601
    ## 10  2013     5     5      934            958       -24     1225
    ## # ... with 336,766 more rows, and 12 more variables: sched_arr_time <int>,
    ## #   arr_delay <dbl>, carrier <chr>, flight <int>, tailnum <chr>,
    ## #   origin <chr>, dest <chr>, air_time <dbl>, distance <dbl>, hour <dbl>,
    ## #   minute <dbl>, time_hour <dttm>

``` r
arrange(flights, desc(dep_delay))
```

    ## # A tibble: 336,776 x 19
    ##     year month   day dep_time sched_dep_time dep_delay arr_time
    ##    <int> <int> <int>    <int>          <int>     <dbl>    <int>
    ##  1  2013     1     9      641            900      1301     1242
    ##  2  2013     6    15     1432           1935      1137     1607
    ##  3  2013     1    10     1121           1635      1126     1239
    ##  4  2013     9    20     1139           1845      1014     1457
    ##  5  2013     7    22      845           1600      1005     1044
    ##  6  2013     4    10     1100           1900       960     1342
    ##  7  2013     3    17     2321            810       911      135
    ##  8  2013     6    27      959           1900       899     1236
    ##  9  2013     7    22     2257            759       898      121
    ## 10  2013    12     5      756           1700       896     1058
    ## # ... with 336,766 more rows, and 12 more variables: sched_arr_time <int>,
    ## #   arr_delay <dbl>, carrier <chr>, flight <int>, tailnum <chr>,
    ## #   origin <chr>, dest <chr>, air_time <dbl>, distance <dbl>, hour <dbl>,
    ## #   minute <dbl>, time_hour <dttm>
…
